[
    {
        "content": "In in augue placerat, viverra ligula quis, elementum augue. Donec molestie cursus tempus. Suspendisse malesuada, non laoreet aliquet, est est vestibulum sapien, ut iaculis metus nunc eget urna. Donec tincidunt libero non porttitor volutpat.    ",
        "title": "REFRESH YOUR MIND!",
        "bgUrl": "https://an-spa.vn/wp-content/uploads/2019/01/foot-massage.jpg"
    },
    {
        "content": "Lorem ipsum dolor sit amet, consectetur adipiscing elit. Integer gravida velit quis dolor tristique accumsan. Pellentesque elit tortor, adipiscing vel velit in , ultricies fermentum nulla. Donec in urna semulla facilisi. Vestibulum ut aliquet magna. Nulla nec faucibus est",
        "title": "REFRESH YOUR MIND!",
        "bgUrl": "https://i.pinimg.com/originals/12/b9/f6/12b9f6c7963992316126a1df5319f7fd.jpg"
    },
    {
        "content": "Lorem ipsum dolor sit amet, consectetur adipiscing elit. Integer gravida velit quis dolor tristique accumsan. Pellentesque elit tortor, adipiscing vel velit in , ultricies fermentum nulla. Donec in urna semulla facilisi. Vestibulum ut aliquet magna. Nulla nec faucibus est        ",
        "title": "REFRESH YOUR MIND!",
        "bgUrl": "https://intphcm.com/data/upload/logo-spa.jpg"
    }
]